HW_3
…
* First I am loading the instacart dataset into r using the library datasets

library(p8105.datasets)
data("instacart")
 view (instacart)

The instacart data set has 1,384,617 obervations and 15 variabeles. The dataset includes the orderid and the product id as well as how many items are in the cart. The dataset also has information on whether or not the product was re-ordered previously or not, it also has information on the order number, the hour of the day the product was ordered and the name of the product. The aisleid and number as well as the deparment are also included in the dataset.

* How many aisles are there, and which aisles are the most items ordered from?

instacart %>% 
  count(aisle) %>% 
  arrange(desc(n))

## # A tibble: 134 x 2
##    aisle                              n
##    <chr>                          <int>
##  1 fresh vegetables              150609
##  2 fresh fruits                  150473
##  3 packaged vegetables fruits     78493
##  4 yogurt                         55240
##  5 packaged cheese                41699
##  6 water seltzer sparkling water  36617
##  7 milk                           32644
##  8 chips pretzels                 31269
##  9 soy lactosefree                26240
## 10 bread                          23635
## #  with 124 more rows
…
